lfsr/simulation/qsim/lfsr.msim.vcd
$comment
	File created using the following command:
		vcd file lfsr.msim.vcd -direction
$end
$date
	Wed Apr  2 10:11:27 2025
$end
$version
	ModelSim Version 2020.1
$end
$timescale
	1ps
$end

$scope module lfsr_vhd_vec_tst $end
$var wire 1 ! clk $end
$var wire 1 " enable $end
$var wire 1 # lfsr_out [7] $end
$var wire 1 $ lfsr_out [6] $end
$var wire 1 % lfsr_out [5] $end
$var wire 1 & lfsr_out [4] $end
$var wire 1 ' lfsr_out [3] $end
$var wire 1 ( lfsr_out [2] $end
$var wire 1 ) lfsr_out [1] $end
$var wire 1 * lfsr_out [0] $end
$var wire 1 + reset $end
$var wire 1 , sequence $end

$scope module i1 $end
$var wire 1 - gnd $end
$var wire 1 . vcc $end
$var wire 1 / unknown $end
$var wire 1 0 devoe $end
$var wire 1 1 devclrn $end
$var wire 1 2 devpor $end
$var wire 1 3 ww_devoe $end
$var wire 1 4 ww_devclrn $end
$var wire 1 5 ww_devpor $end
$var wire 1 6 ww_clk $end
$var wire 1 7 ww_reset $end
$var wire 1 8 ww_enable $end
$var wire 1 9 ww_lfsr_out [7] $end
$var wire 1 : ww_lfsr_out [6] $end
$var wire 1 ; ww_lfsr_out [5] $end
$var wire 1 < ww_lfsr_out [4] $end
$var wire 1 = ww_lfsr_out [3] $end
$var wire 1 > ww_lfsr_out [2] $end
$var wire 1 ? ww_lfsr_out [1] $end
$var wire 1 @ ww_lfsr_out [0] $end
$var wire 1 A ww_sequence $end
$var wire 1 B \~QUARTUS_CREATED_ADC1~_CHSEL_bus\ [4] $end
$var wire 1 C \~QUARTUS_CREATED_ADC1~_CHSEL_bus\ [3] $end
$var wire 1 D \~QUARTUS_CREATED_ADC1~_CHSEL_bus\ [2] $end
$var wire 1 E \~QUARTUS_CREATED_ADC1~_CHSEL_bus\ [1] $end
$var wire 1 F \~QUARTUS_CREATED_ADC1~_CHSEL_bus\ [0] $end
$var wire 1 G \~QUARTUS_CREATED_ADC2~_CHSEL_bus\ [4] $end
$var wire 1 H \~QUARTUS_CREATED_ADC2~_CHSEL_bus\ [3] $end
$var wire 1 I \~QUARTUS_CREATED_ADC2~_CHSEL_bus\ [2] $end
$var wire 1 J \~QUARTUS_CREATED_ADC2~_CHSEL_bus\ [1] $end
$var wire 1 K \~QUARTUS_CREATED_ADC2~_CHSEL_bus\ [0] $end
$var wire 1 L \reset~inputclkctrl_INCLK_bus\ [3] $end
$var wire 1 M \reset~inputclkctrl_INCLK_bus\ [2] $end
$var wire 1 N \reset~inputclkctrl_INCLK_bus\ [1] $end
$var wire 1 O \reset~inputclkctrl_INCLK_bus\ [0] $end
$var wire 1 P \clk~inputclkctrl_INCLK_bus\ [3] $end
$var wire 1 Q \clk~inputclkctrl_INCLK_bus\ [2] $end
$var wire 1 R \clk~inputclkctrl_INCLK_bus\ [1] $end
$var wire 1 S \clk~inputclkctrl_INCLK_bus\ [0] $end
$var wire 1 T \~QUARTUS_CREATED_GND~I_combout\ $end
$var wire 1 U \~QUARTUS_CREATED_UNVM~~busy\ $end
$var wire 1 V \~QUARTUS_CREATED_ADC1~~eoc\ $end
$var wire 1 W \~QUARTUS_CREATED_ADC2~~eoc\ $end
$var wire 1 X \lfsr_out[0]~output_o\ $end
$var wire 1 Y \lfsr_out[1]~output_o\ $end
$var wire 1 Z \lfsr_out[2]~output_o\ $end
$var wire 1 [ \lfsr_out[3]~output_o\ $end
$var wire 1 \ \lfsr_out[4]~output_o\ $end
$var wire 1 ] \lfsr_out[5]~output_o\ $end
$var wire 1 ^ \lfsr_out[6]~output_o\ $end
$var wire 1 _ \lfsr_out[7]~output_o\ $end
$var wire 1 ` \sequence~output_o\ $end
$var wire 1 a \clk~input_o\ $end
$var wire 1 b \clk~inputclkctrl_outclk\ $end
$var wire 1 c \lfsr_reg~0_combout\ $end
$var wire 1 d \reset~input_o\ $end
$var wire 1 e \reset~inputclkctrl_outclk\ $end
$var wire 1 f \enable~input_o\ $end
$var wire 1 g \lfsr_reg[6]~feeder_combout\ $end
$var wire 1 h \lfsr_reg[5]~2_combout\ $end
$var wire 1 i \lfsr_reg[4]~feeder_combout\ $end
$var wire 1 j \lfsr_reg[3]~feeder_combout\ $end
$var wire 1 k \lfsr_reg[2]~feeder_combout\ $end
$var wire 1 l \lfsr_reg[1]~1_combout\ $end
$var wire 1 m \lfsr_reg[0]~feeder_combout\ $end
$var wire 1 n \sequence_reg~0_combout\ $end
$var wire 1 o \sequence_reg~q\ $end
$var wire 1 p lfsr_reg [7] $end
$var wire 1 q lfsr_reg [6] $end
$var wire 1 r lfsr_reg [5] $end
$var wire 1 s lfsr_reg [4] $end
$var wire 1 t lfsr_reg [3] $end
$var wire 1 u lfsr_reg [2] $end
$var wire 1 v lfsr_reg [1] $end
$var wire 1 w lfsr_reg [0] $end
$var wire 1 x \ALT_INV_reset~inputclkctrl_outclk\ $end
$var wire 1 y ALT_INV_lfsr_reg [7] $end
$var wire 1 z ALT_INV_lfsr_reg [6] $end
$var wire 1 { ALT_INV_lfsr_reg [5] $end
$var wire 1 | ALT_INV_lfsr_reg [4] $end
$var wire 1 } ALT_INV_lfsr_reg [3] $end
$var wire 1 ~ ALT_INV_lfsr_reg [2] $end
$var wire 1 !! ALT_INV_lfsr_reg [1] $end
$var wire 1 "! ALT_INV_lfsr_reg [0] $end
$upscope $end
$upscope $end
$enddefinitions $end
#0
$dumpvars
0!
1"
0+
0,
0-
1.
x/
10
11
12
13
14
15
06
07
18
0A
0T
zU
zV
zW
1X
1Y
0Z
0[
0\
0]
1^
1_
0`
0a
0b
1c
0d
0e
1f
0g
1h
0i
0j
0k
1l
0m
1n
0o
1x
19
1:
0;
0<
0=
0>
1?
1@
0p
0q
0r
0s
0t
0u
0v
0w
1y
1z
x{
x|
x}
x~
1!!
1"!
1P
1Q
1R
0S
1L
1M
1N
0O
0B
0C
0D
0E
0F
0G
0H
0I
0J
0K
1#
1$
0%
0&
0'
0(
1)
1*
$end
#10000
1!
16
1a
1S
1b
1p
1r
1v
1o
0!!
0y
1`
1]
1m
1i
1g
0_
0Y
1A
1;
09
0?
1,
1%
0)
0#
#20000
0!
06
0a
0S
0b
#30000
1!
16
1a
1S
1b
1q
1s
1w
0"!
0z
1\
0n
1j
0h
0^
0X
1<
0:
0@
1&
0*
0$
#40000
0!
06
0a
0S
0b
#50000
1!
16
1a
1S
1b
0r
1t
0o
0`
1[
0]
1k
0i
0A
1=
0;
0,
1'
0%
#60000
0!
06
0a
0S
0b
#70000
1!
16
1a
1S
1b
0s
1u
1Z
0\
0l
0j
1>
0<
1(
0&
#80000
0!
06
0a
0S
0b
#90000
1!
16
1a
1S
1b
0t
0v
1!!
0[
0c
0m
0k
1Y
0=
1?
0'
1)
#100000
0!
06
0a
0S
0b
#110000
1!
16
1a
1S
1b
0p
0u
0w
1"!
1y
0Z
1n
1l
0g
1_
1X
0>
19
1@
0(
1*
1#
#120000
0!
06
0a
0S
0b
#130000
1!
16
1a
1S
1b
0q
1v
1o
0!!
1z
1`
1m
1h
1^
0Y
1A
1:
0?
1,
0)
1$
#140000
0!
06
0a
0S
0b
#150000
1!
16
1a
1S
1b
1r
1w
0"!
1]
1c
0n
1i
0X
1;
0@
1%
0*
#160000
0!
06
0a
0S
0b
#170000
1!
16
1a
1S
1b
1p
1s
0o
0y
0`
1\
1j
0c
1g
0_
0A
1<
09
0,
1&
0#
#180000
0!
06
0a
0S
0b
#190000
1!
16
1a
1S
1b
0p
1q
1t
0z
1y
1[
1k
0h
0g
1_
0^
1=
19
0:
1'
0$
1#
#200000
0!
06
0a
0S
0b
#210000
1!
16
1a
1S
1b
0q
0r
1u
1z
1Z
0]
0l
0i
1c
1h
1^
1>
0;
1:
1(
0%
1$
#220000
0!
06
0a
0S
0b
#230000
1!
16
1a
1S
1b
1p
1r
0s
0v
1!!
0y
0\
1]
0m
0j
1i
1g
0_
1Y
0<
1;
09
1?
0&
1%
1)
0#
#240000
0!
06
0a
0S
0b
#250000
1!
16
1a
1S
1b
1q
1s
0t
0w
1"!
0z
0[
1\
1n
0k
1j
0h
0^
1X
0=
1<
0:
1@
0'
1&
1*
0$
#260000
0!
06
0a
0S
0b
#270000
1!
16
1a
1S
1b
0r
1t
0u
1o
1`
0Z
1[
0]
1l
1k
0i
1A
0>
1=
0;
1,
0(
1'
0%
#280000
0!
06
0a
0S
0b
#290000
1!
16
1a
1S
1b
0s
1u
1v
0!!
1Z
0\
0c
1m
0l
0j
0Y
1>
0<
0?
1(
0&
0)
#300000
0!
06
0a
0S
0b
#310000
1!
16
1a
1S
1b
0p
0t
0v
1w
0"!
1!!
1y
0[
0n
0m
0k
1c
0g
1_
1Y
0X
0=
19
1?
0@
0'
0*
1)
1#
#320000
0!
06
0a
0S
0b
#330000
1!
16
1a
1S
1b
1p
0q
0u
0w
0o
1"!
1z
0y
0`
0Z
1n
1l
1h
0c
1g
0_
1^
1X
0A
0>
09
1:
1@
0,
0(
1*
1$
0#
#340000
0!
06
0a
0S
0b
#350000
1!
16
1a
1S
1b
0p
1q
1r
1v
1o
0!!
0z
1y
1`
1]
1m
1i
0h
1c
0g
1_
0^
0Y
1A
1;
19
0:
0?
1,
1%
0)
0$
1#
#360000
0!
06
0a
0S
0b
#370000
1!
16
1a
1S
1b
1p
0q
0r
1s
1w
0"!
1z
0y
1\
0]
0n
1j
0i
1h
0c
1g
0_
1^
0X
1<
0;
09
1:
0@
1&
0%
0*
1$
0#
#380000
0!
06
0a
0S
0b
#390000
1!
16
1a
1S
1b
0p
1q
1r
0s
1t
0o
0z
1y
0`
1[
0\
1]
1k
0j
1i
0h
0g
1_
0^
0A
1=
0<
1;
19
0:
0,
1'
0&
1%
0$
1#
#400000
0!
06
0a
0S
0b
#410000
1!
16
1a
1S
1b
0q
0r
1s
0t
1u
1z
1Z
0[
1\
0]
0l
0k
1j
0i
1c
1h
1^
1>
0=
1<
0;
1:
1(
0'
1&
0%
1$
#420000
0!
06
0a
0S
0b
#430000
1!
16
1a
1S
1b
1p
1r
0s
1t
0u
0v
1!!
0y
0Z
1[
0\
1]
0m
1l
1k
0j
1i
1g
0_
1Y
0>
1=
0<
1;
09
1?
0(
1'
0&
1%
1)
0#
#440000
0!
06
0a
0S
0b
#450000
1!
16
1a
1S
1b
1q
1s
0t
1u
1v
0w
1"!
0!!
0z
1Z
0[
1\
1n
1m
0l
0k
1j
0c
0h
0^
0Y
1X
1>
0=
1<
0:
0?
1@
1(
0'
1&
1*
0)
0$
#460000
0!
06
0a
0S
0b
#470000
1!
16
1a
1S
1b
0p
0r
1t
0u
0v
1w
1o
0"!
1!!
1y
1`
0Z
1[
0]
0n
0m
1l
1k
0i
1c
0g
1_
1Y
0X
1A
0>
1=
0;
19
1?
0@
1,
0(
1'
0%
0*
1)
1#
#480000
0!
06
0a
0S
0b
#490000
1!
16
1a
1S
1b
1p
0q
0s
1u
1v
0w
0o
1"!
0!!
1z
0y
0`
1Z
0\
1n
1m
0l
0j
1h
1g
0_
1^
0Y
1X
0A
1>
0<
09
1:
0?
1@
0,
1(
0&
1*
0)
1$
0#
#500000
0!
06
0a
0S
0b
#510000
1!
16
1a
1S
1b
1q
1r
0t
0v
1w
1o
0"!
1!!
0z
1`
0[
1]
0n
0m
0k
1i
0c
0h
0^
1Y
0X
1A
0=
1;
0:
1?
0@
1,
0'
1%
0*
1)
0$
#520000
0!
06
0a
0S
0b
#530000
1!
16
1a
1S
1b
0p
0r
1s
0u
0w
0o
1"!
1y
0`
0Z
1\
0]
1n
1l
1j
0i
0g
1_
1X
0A
0>
1<
0;
19
1@
0,
0(
1&
0%
1*
1#
#540000
0!
06
0a
0S
0b
#550000
1!
16
1a
1S
1b
0q
0s
1t
1v
1o
0!!
1z
1`
1[
0\
1m
1k
0j
1h
1^
0Y
1A
1=
0<
1:
0?
1,
1'
0&
0)
1$
#560000
0!
06
0a
0S
0b
#570000
1!
16
1a
1S
1b
1r
0t
1u
1w
0"!
1Z
0[
1]
1c
0n
0l
0k
1i
0X
1>
0=
1;
0@
1(
0'
1%
0*
#580000
0!
06
0a
0S
0b
#590000
1!
16
1a
1S
1b
1p
1s
0u
0v
0o
1!!
0y
0`
0Z
1\
0m
1l
1j
1g
0_
1Y
0A
0>
1<
09
1?
0,
0(
1&
1)
0#
#600000
0!
06
0a
0S
0b
#610000
1!
16
1a
1S
1b
1q
1t
1v
0w
1"!
0!!
0z
1[
1n
1m
1k
0c
0h
0^
0Y
1X
1=
0:
0?
1@
1'
1*
0)
0$
#620000
0!
06
0a
0S
0b
#630000
1!
16
1a
1S
1b
0p
0r
1u
1w
1o
0"!
1y
1`
1Z
0]
0n
0l
0i
0g
1_
0X
1A
1>
0;
19
0@
1,
1(
0%
0*
1#
#640000
0!
06
0a
0S
0b
#650000
1!
16
1a
1S
1b
0q
0s
0v
0o
1!!
1z
0`
0\
0m
0j
1h
1^
1Y
0A
0<
1:
1?
0,
0&
1)
1$
#660000
0!
06
0a
0S
0b
#670000
1!
16
1a
1S
1b
1r
0t
0w
1"!
0[
1]
1c
1n
0k
1i
1X
0=
1;
1@
0'
1%
1*
#680000
0!
06
0a
0S
0b
#690000
1!
16
1a
1S
1b
1p
1s
0u
1o
0y
1`
0Z
1\
1l
1j
0c
1g
0_
1A
0>
1<
09
1,
0(
1&
0#
#700000
0!
06
0a
0S
0b
#710000
1!
16
1a
1S
1b
0p
1q
1t
1v
0!!
0z
1y
1[
1m
1k
0h
1c
0g
1_
0^
0Y
1=
19
0:
0?
1'
0)
0$
1#
#720000
0!
06
0a
0S
0b
#730000
1!
16
1a
1S
1b
1p
0q
0r
1u
1w
0"!
1z
0y
1Z
0]
0n
0l
0i
1h
0c
1g
0_
1^
0X
1>
0;
09
1:
0@
1(
0%
0*
1$
0#
#740000
0!
06
0a
0S
0b
#750000
1!
16
1a
1S
1b
0p
1q
1r
0s
0v
0o
1!!
0z
1y
0`
0\
1]
0m
0j
1i
0h
1c
0g
1_
0^
1Y
0A
0<
1;
19
0:
1?
0,
0&
1%
1)
0$
1#
#760000
0!
06
0a
0S
0b
#770000
1!
16
1a
1S
1b
1p
0q
0r
1s
0t
0w
1"!
1z
0y
0[
1\
0]
1n
0k
1j
0i
1h
0c
1g
0_
1^
1X
0=
1<
0;
09
1:
1@
0'
1&
0%
1*
1$
0#
#780000
0!
06
0a
0S
0b
#790000
1!
16
1a
1S
1b
0p
1q
1r
0s
1t
0u
1o
0z
1y
1`
0Z
1[
0\
1]
1l
1k
0j
1i
0h
0g
1_
0^
1A
0>
1=
0<
1;
19
0:
1,
0(
1'
0&
1%
0$
1#
#800000
0!
06
0a
0S
0b
#810000
1!
16
1a
1S
1b
0q
0r
1s
0t
1u
1v
0!!
1z
1Z
0[
1\
0]
1m
0l
0k
1j
0i
1h
1^
0Y
1>
0=
1<
0;
1:
0?
1(
0'
1&
0%
0)
1$
#820000
0!
06
0a
0S
0b
#830000
1!
16
1a
1S
1b
1r
0s
1t
0u
0v
1w
0"!
1!!
0Z
1[
0\
1]
0n
0m
1l
1k
0j
1i
1Y
0X
0>
1=
0<
1;
1?
0@
0(
1'
0&
1%
0*
1)
#840000
0!
06
0a
0S
0b
#850000
1!
16
1a
1S
1b
1s
0t
1u
1v
0w
0o
1"!
0!!
0`
1Z
0[
1\
1n
1m
0l
0k
1j
0Y
1X
0A
1>
0=
1<
0?
1@
0,
1(
0'
1&
1*
0)
#860000
0!
06
0a
0S
0b
#870000
1!
16
1a
1S
1b
1t
0u
0v
1w
1o
0"!
1!!
1`
0Z
1[
0n
0m
1l
1k
1Y
0X
1A
0>
1=
1?
0@
1,
0(
1'
0*
1)
#880000
0!
06
0a
0S
0b
#890000
1!
16
1a
1S
1b
1u
1v
0w
0o
1"!
0!!
0`
1Z
1n
1m
0l
0Y
1X
0A
1>
0?
1@
0,
1(
1*
0)
#900000
0!
06
0a
0S
0b
#910000
1!
16
1a
1S
1b
0v
1w
1o
0"!
1!!
1`
0n
0m
1Y
0X
1A
1?
0@
1,
0*
1)
#920000
0!
06
0a
0S
0b
#930000
1!
16
1a
1S
1b
0w
0o
1"!
0`
1c
1n
1X
0A
1@
0,
1*
#940000
0!
06
0a
0S
0b
#950000
1!
16
1a
1S
1b
1p
1o
0y
1`
0c
1g
0_
1A
09
1,
0#
#960000
0!
06
0a
0S
0b
#970000
1!
16
1a
1S
1b
0p
1q
0z
1y
0h
0g
1_
0^
19
0:
0$
1#
#980000
0!
06
0a
0S
0b
#990000
1!
16
1a
1S
1b
0q
0r
1z
0]
0i
1c
1h
1^
0;
1:
0%
1$
